Journal (reproducible report)
…
2.2 2.0 Importing Files —-

# A good convention is to use the file name and suffix it with tbl for the data structure tibble
bikes_tbl      <- read_excel(path = "00_data/01_bike_sales/01_raw_data/bikes.xlsx")
orderlines_tbl <- read_excel("00_data/01_bike_sales/01_raw_data/orderlines.xlsx")

# Not necessary for this analysis, but for the sake of completeness
bikeshops_tbl  <- read_excel("00_data/01_bike_sales/01_raw_data/bikeshops.xlsx")

2.3 3.0 Examining Data —-

bikeshops_tbl

## # A tibble: 30 x 5
##    bikeshop.id name                  location                          lat   lng
##          <dbl> <chr>                 <chr>                           <dbl> <dbl>
##  1           1 Zum Goldenen Lenker   Berlin, Berlin                   52.5 13.4 
##  2           2 AlexandeRad           Hamburg, Hamburg                 53.6 10.0 
##  3           3 Fahrradladen 16       Munich, Bavaria                  48.2 11.6 
##  4           4 Bikestation Köln      Cologne, North Rhine-Westphalia  50.9  6.95
##  5           5 Montimare             Frankfurt, Hesse                 50.1  8.68
##  6           6 fahrschneller         Stuttgart, Baden-Württemberg     48.8  9.18
##  7           7 Rad Ab                Düsseldorf, North Rhine-Westph~  51.2  6.79
##  8           8 Lucky Bike            Dortmund, North Rhine-Westphal~  51.5  7.47
##  9           9 Zweirad-Center Stadl~ Essen, North Rhine-Westphalia    51.5  7.01
## 10          10 WITT-RAD              Bremen, Bremen                   53.1  8.83
## # ... with 20 more rows
glimpse(bikeshops_tbl)

## Rows: 30
## Columns: 5
## $ bikeshop.id <dbl> 1, 2, 3, 4, 5, 6, 7, 8, 9, 10, 11, 12, 13, 14, 15, 16, ...
## $ name        <chr> "Zum Goldenen Lenker", "AlexandeRad", "Fahrradladen 16"...
## $ location    <chr> "Berlin, Berlin", "Hamburg, Hamburg", "Munich, Bavaria"...
## $ lat         <dbl> 52.51667, 53.57532, 48.15000, 50.93333, 50.11552, 48.78...
## $ lng         <dbl> 13.400000, 10.015340, 11.583333, 6.950000, 8.684167, 9....

2.4 4.0 Joining Data —-

left_join(orderlines_tbl, bikes_tbl, by = c("product.id" = "bike.id"))

## # A tibble: 15,644 x 15
##    ...1  order.id order.line order.date          customer.id product.id quantity
##    <chr>    <dbl>      <dbl> <dttm>                    <dbl>      <dbl>    <dbl>
##  1 1            1          1 2015-01-07 00:00:00           2       2681        1
##  2 2            1          2 2015-01-07 00:00:00           2       2411        1
##  3 3            2          1 2015-01-10 00:00:00          10       2629        1
##  4 4            2          2 2015-01-10 00:00:00          10       2137        1
##  5 5            3          1 2015-01-10 00:00:00           6       2367        1
##  6 6            3          2 2015-01-10 00:00:00           6       1973        1
##  7 7            3          3 2015-01-10 00:00:00           6       2422        1
##  8 8            3          4 2015-01-10 00:00:00           6       2655        1
##  9 9            3          5 2015-01-10 00:00:00           6       2247        1
## 10 10           4          1 2015-01-11 00:00:00          22       2408        1
## # ... with 15,634 more rows, and 8 more variables: model <chr>,
## #   model.year <dbl>, frame.material <chr>, weight <dbl>, price <dbl>,
## #   category <chr>, gender <chr>, url <chr>
…
  # Group by and summarize year and main catgegory
  group_by(year, state) %>%
  summarise(sales = sum(total_price)) %>%
  ungroup() %>%
  
  # Format $ Text
  mutate(sales_text = scales::dollar(sales, big.mark = ".", 
                                     decimal.mark = ",", 
                                     prefix = "", 
                                     suffix = " €"))

sales_by_loc_year_tbl

## # A tibble: 60 x 4
##     year state                           sales sales_text 
##    <int> <chr>                           <dbl> <chr>      
##  1  2015 Baden-Württemberg             1031924 1.031.924 €
##  2  2015 Bavaria                       1301461 1.301.461 €
##  3  2015 Berlin                          95853 95.853 €   
##  4  2015 Bremen                        1395912 1.395.912 €
##  5  2015 Hamburg                        423090 423.090 €  
##  6  2015 Hesse                          308609 308.609 €  
##  7  2015 Lower Saxony                   584386 584.386 €  
##  8  2015 Mecklenburg-Western Pomerania  222003 222.003 €  
##  9  2015 North Rhine-Westphalia        3735092 3.735.092 €
## 10  2015 Saxony                         238371 238.371 €  
## # ... with 50 more rows
…
