Unit 7
…
IV. Create features

flight_data %>% 
  distinct(date) %>% 
  mutate(numeric_date = as.numeric(date)) 

## # A tibble: 364 x 2
##    date       numeric_date
##    <date>            <dbl>
##  1 2013-01-01        15706
##  2 2013-01-02        15707
##  3 2013-01-03        15708
##  4 2013-01-04        15709
##  5 2013-01-05        15710
##  6 2013-01-06        15711
##  7 2013-01-07        15712
##  8 2013-01-08        15713
##  9 2013-01-09        15714
## 10 2013-01-10        15715
## # ... with 354 more rows
…
flights_fit <- 
  flights_wflow %>% 
  fit(data = train_data)

flights_fit %>% 
  pull_workflow_fit() %>% 
  tidy()

## # A tibble: 157 x 5
##    term                         estimate std.error statistic  p.value
##    <chr>                           <dbl>     <dbl>     <dbl>    <dbl>
##  1 (Intercept)                   3.91    2.73           1.43 1.51e- 1
##  2 dep_time                     -0.00167 0.0000141   -118.   0.      
##  3 air_time                     -0.0439  0.000561     -78.4  0.      
##  4 distance                      0.00686 0.00150        4.57 4.84e- 6
##  5 date_USChristmasDay           1.12    0.173          6.49 8.45e-11
##  6 date_USColumbusDay            0.474   0.159          2.99 2.81e- 3
##  7 date_USCPulaskisBirthday      0.864   0.139          6.21 5.47e-10
##  8 date_USDecorationMemorialDay  0.279   0.110          2.53 1.15e- 2
##  9 date_USElectionDay            0.696   0.169          4.12 3.82e- 5
## 10 date_USGoodFriday             1.28    0.166          7.71 1.27e-14
## # ... with 147 more rows

predict(flights_fit, test_data)

## # A tibble: 81,454 x 1
##    .pred_class
##    <fct>      
##  1 on_time    
##  2 on_time    
##  3 on_time    
##  4 on_time    
##  5 on_time    
##  6 on_time    
##  7 on_time    
##  8 on_time    
##  9 on_time    
## 10 on_time    
## # ... with 81,444 more rows

flights_pred <- 
  predict(flights_fit, test_data, type = "prob") %>% 
  bind_cols(test_data %>% select(arr_delay, time_hour, flight)) 

# The data look like: 
flights_pred

## # A tibble: 81,454 x 5
##    .pred_late .pred_on_time arr_delay time_hour           flight
##         <dbl>         <dbl> <fct>     <dttm>               <int>
##  1     0.0565         0.944 on_time   2013-01-01 05:00:00   1714
##  2     0.0264         0.974 on_time   2013-01-01 06:00:00     79
##  3     0.0481         0.952 on_time   2013-01-01 06:00:00    301
##  4     0.0325         0.967 on_time   2013-01-01 06:00:00     49
##  5     0.0711         0.929 on_time   2013-01-01 06:00:00   1187
##  6     0.0583         0.942 on_time   2013-01-01 06:00:00   4401
##  7     0.0171         0.983 on_time   2013-01-01 06:00:00   1895
##  8     0.0458         0.954 on_time   2013-01-01 06:00:00    135
##  9     0.0221         0.978 on_time   2013-01-01 06:00:00   4646
## 10     0.0502         0.950 on_time   2013-01-01 06:00:00   4144
## # ... with 81,444 more rows
…
3. Evaluating

library(tidymodels)

library(modeldata)

I. The Data

data(cells, package = "modeldata")
cells

## # A tibble: 2,019 x 58
##    case  class angle_ch_1 area_ch_1 avg_inten_ch_1 avg_inten_ch_2 avg_inten_ch_3
##    <fct> <fct>      <dbl>     <int>          <dbl>          <dbl>          <dbl>
##  1 Test  PS        143.         185           15.7           4.95           9.55
##  2 Train PS        134.         819           31.9         207.            69.9 
##  3 Train WS        107.         431           28.0         116.            63.9 
##  4 Train PS         69.2        298           19.5         102.            28.2 
##  5 Test  PS          2.89       285           24.3         112.            20.5 
##  6 Test  WS         40.7        172          326.          654.           129.  
##  7 Test  WS        174.         177          260.          596.           124.  
##  8 Test  PS        180.         251           18.3           5.73          17.2 
##  9 Test  WS         18.9        495           16.1          89.5           13.7 
## 10 Test  WS        153.         384           17.7          89.9           20.4 
## # ... with 2,009 more rows, and 51 more variables: avg_inten_ch_4 <dbl>,
## #   convex_hull_area_ratio_ch_1 <dbl>, convex_hull_perim_ratio_ch_1 <dbl>,
## #   diff_inten_density_ch_1 <dbl>, diff_inten_density_ch_3 <dbl>,
## #   diff_inten_density_ch_4 <dbl>, entropy_inten_ch_1 <dbl>,
## #   entropy_inten_ch_3 <dbl>, entropy_inten_ch_4 <dbl>,
## #   eq_circ_diam_ch_1 <dbl>, eq_ellipse_lwr_ch_1 <dbl>,
## #   eq_ellipse_oblate_vol_ch_1 <dbl>, eq_ellipse_prolate_vol_ch_1 <dbl>,
## #   eq_sphere_area_ch_1 <dbl>, eq_sphere_vol_ch_1 <dbl>,
## #   fiber_align_2_ch_3 <dbl>, fiber_align_2_ch_4 <dbl>,
…
